\begin{thebibliography}{1}
\providecommand{\url}[1]{\texttt{#1}}
\providecommand{\urlprefix}{URL }

\bibitem{wiki-nlu}
维基百科-自然语言理解.
  \url{https://zh.wikipedia.org/wiki/%E8%87%AA%E7%84%B6%E8%AF%AD%E8%A8%80%E7%90%86%E8%A7%A3}

\bibitem{zhanghaoyu1993}
as-reader在tensorflow和keras下改写总结.
  \url{http://zhanghaoyu1993.github.io/2017/04/08/ml-coding-summarize/as-reader%E5%9C%A8tensorflow%E5%92%8Ckeras%E4%B8%8B%E6%94%B9%E5%86%99%E6%80%BB%E7%BB%93/}

\bibitem{tensorflow2015-whitepaper}
Abadi, M., Agarwal, A., Barham, P., Brevdo, E., Chen, Z., Citro, C., Corrado,
  G.S., Davis, A., Dean, J., Devin, M., Ghemawat, S., Goodfellow, I., Harp, A.,
  Irving, G., Isard, M., Jia, Y., Jozefowicz, R., Kaiser, L., Kudlur, M.,
  Levenberg, J., Man\'{e}, D., Monga, R., Moore, S., Murray, D., Olah, C.,
  Schuster, M., Shlens, J., Steiner, B., Sutskever, I., Talwar, K., Tucker, P.,
  Vanhoucke, V., Vasudevan, V., Vi\'{e}gas, F., Vinyals, O., Warden, P.,
  Wattenberg, M., Wicke, M., Yu, Y., Zheng, X.: {TensorFlow}: Large-scale
  machine learning on heterogeneous systems (2015),
  \url{http://tensorflow.org/}, software available from tensorflow.org

\bibitem{Bahdanau2014Neural}
Bahdanau, D., Cho, K., Bengio, Y.: Neural machine translation by jointly
  learning to align and translate. Computer Science  (2014)

\bibitem{chollet2015keras}
Chollet, F.: Keras. \url{https://github.com/fchollet/keras} (2015)

\bibitem{Chung2014Empirical}
Chung, J., Gulcehre, C., Cho, K.H., Bengio, Y.: Empirical evaluation of gated
  recurrent neural networks on sequence modeling. Eprint Arxiv  (2014)

\bibitem{Deutsch2012Supervised}
Deutsch: Supervised sequence labelling with recurrent neural networks |
  springer. Springer-Verlag Berlin Heidelberg  (2012)

\bibitem{Kadlec2016Text}
Kadlec, R., Schmid, M., Bajgar, O., Kleindienst, J.: Text understanding with
  the attention sum reader network pp. 908--918 (2016)

\bibitem{Werbos1990Backpropagation}
Werbos, P.J.: Backpropagation through time: what it does and how to do it.
  Proceedings of the IEEE  78(10),  1550--1560 (1990)

\end{thebibliography}
